\relax 
\providecommand\hyper@newdestlabel[2]{}
\providecommand\HyperFirstAtBeginDocument{\AtBeginDocument}
\HyperFirstAtBeginDocument{\ifx\hyper@anchor\@undefined
\global\let\oldcontentsline\contentsline
\gdef\contentsline#1#2#3#4{\oldcontentsline{#1}{#2}{#3}}
\global\let\oldnewlabel\newlabel
\gdef\newlabel#1#2{\newlabelxx{#1}#2}
\gdef\newlabelxx#1#2#3#4#5#6{\oldnewlabel{#1}{{#2}{#3}}}
\AtEndDocument{\ifx\hyper@anchor\@undefined
\let\contentsline\oldcontentsline
\let\newlabel\oldnewlabel
\fi}
\fi}
\global\let\hyper@last\relax 
\gdef\HyperFirstAtBeginDocument#1{#1}
\providecommand\HyField@AuxAddToFields[1]{}
\providecommand\HyField@AuxAddToCoFields[2]{}
\catcode `"\active 
\providecommand \oddpage@label [2]{}
\babel@aux{bulgarian}{}
\citation{data01}
\citation{data01}
\@writefile{toc}{\contentsline {section}{\numberline {1}\IeC {\CYRU }\IeC {\cyrv }\IeC {\cyro }\IeC {\cyrd }}{3}{section.1}\protected@file@percent }
\@writefile{toc}{\contentsline {paragraph}{}{3}{section*.2}\protected@file@percent }
\@writefile{toc}{\contentsline {paragraph}{}{3}{section*.3}\protected@file@percent }
\@writefile{toc}{\contentsline {paragraph}{}{3}{section*.4}\protected@file@percent }
\@writefile{toc}{\contentsline {paragraph}{}{3}{section*.5}\protected@file@percent }
\@writefile{toc}{\contentsline {section}{\numberline {2}\IeC {\CYRD }\IeC {\cyra }\IeC {\cyrn }\IeC {\cyrn }\IeC {\cyri }}{3}{section.2}\protected@file@percent }
\@writefile{toc}{\contentsline {paragraph}{}{3}{section*.6}\protected@file@percent }
\@writefile{toc}{\contentsline {paragraph}{}{4}{section*.7}\protected@file@percent }
\@writefile{toc}{\contentsline {paragraph}{}{4}{section*.8}\protected@file@percent }
\citation{encode_tut}
\@writefile{toc}{\contentsline {paragraph}{}{5}{section*.9}\protected@file@percent }
\@writefile{toc}{\contentsline {subsection}{\numberline {2.1}\IeC {\CYRK }\IeC {\cyro }\IeC {\cyrr }\IeC {\cyre }\IeC {\cyrl }\IeC {\cyra }\IeC {\cyrc }\IeC {\cyri }\IeC {\cyrya }}{5}{subsection.2.1}\protected@file@percent }
\@writefile{toc}{\contentsline {paragraph}{}{5}{section*.10}\protected@file@percent }
\@writefile{toc}{\contentsline {paragraph}{}{6}{section*.11}\protected@file@percent }
\@writefile{toc}{\contentsline {paragraph}{}{6}{section*.12}\protected@file@percent }
\@writefile{toc}{\contentsline {paragraph}{}{7}{section*.13}\protected@file@percent }
\@writefile{toc}{\contentsline {subsection}{\numberline {2.2}\IeC {\CYRM }\IeC {\cyrn }\IeC {\cyro }\IeC {\cyrg }\IeC {\cyro }\IeC {\cyrr }\IeC {\cyre }\IeC {\cyrd }\IeC {\cyro }\IeC {\cyrv }\IeC {\cyri } \IeC {\cyrd }\IeC {\cyra }\IeC {\cyrn }\IeC {\cyrn }\IeC {\cyri }}{7}{subsection.2.2}\protected@file@percent }
\@writefile{toc}{\contentsline {paragraph}{}{8}{section*.14}\protected@file@percent }
\@writefile{toc}{\contentsline {paragraph}{}{8}{section*.15}\protected@file@percent }
\@writefile{toc}{\contentsline {paragraph}{}{8}{section*.16}\protected@file@percent }
\@writefile{toc}{\contentsline {section}{\numberline {3}\IeC {\CYRM }\IeC {\cyro }\IeC {\cyrd }\IeC {\cyre }\IeC {\cyrl }\IeC {\cyri } \IeC {\cyri } \IeC {\CYRM }\IeC {\cyre }\IeC {\cyrt }\IeC {\cyro }\IeC {\cyrd }\IeC {\cyri }}{9}{section.3}\protected@file@percent }
\@writefile{toc}{\contentsline {subsection}{\numberline {3.1}\IeC {\CYRCH }\IeC {\cyri }\IeC {\cyrs }\IeC {\cyrl }\IeC {\cyre }\IeC {\cyrn }\IeC {\cyro } \IeC {\cyrd }\IeC {\cyri }\IeC {\cyrf }\IeC {\cyre }\IeC {\cyrr }\IeC {\cyre }\IeC {\cyrn }\IeC {\cyrc }\IeC {\cyri }\IeC {\cyrr }\IeC {\cyra }\IeC {\cyrn }\IeC {\cyre }}{9}{subsection.3.1}\protected@file@percent }
\@writefile{toc}{\contentsline {paragraph}{}{9}{section*.17}\protected@file@percent }
\@writefile{toc}{\contentsline {paragraph}{}{10}{section*.18}\protected@file@percent }
\@writefile{toc}{\contentsline {paragraph}{}{10}{section*.19}\protected@file@percent }
\@writefile{toc}{\contentsline {subsection}{\numberline {3.2}\IeC {\CYRM }\IeC {\cyre }\IeC {\cyrt }\IeC {\cyro }\IeC {\cyrd } \IeC {\cyrn }\IeC {\cyra } \IeC {\cyrn }\IeC {\cyra }\IeC {\cyrishrt }- \IeC {\cyrb }\IeC {\cyrhrdsn }\IeC {\cyrr }\IeC {\cyrz }\IeC {\cyro }\IeC {\cyrt }\IeC {\cyro } \IeC {\cyrs }\IeC {\cyrp }\IeC {\cyru }\IeC {\cyrs }\IeC {\cyrk }\IeC {\cyra }\IeC {\cyrn }\IeC {\cyre }}{10}{subsection.3.2}\protected@file@percent }
\@writefile{toc}{\contentsline {paragraph}{}{10}{section*.20}\protected@file@percent }
\@writefile{toc}{\contentsline {paragraph}{}{10}{section*.21}\protected@file@percent }
\@writefile{toc}{\contentsline {paragraph}{}{10}{section*.22}\protected@file@percent }
\@writefile{toc}{\contentsline {paragraph}{}{10}{section*.23}\protected@file@percent }
\@writefile{toc}{\contentsline {paragraph}{}{10}{section*.24}\protected@file@percent }
\citation{publication}
\citation{genetic_1}
\citation{genetic_2}
\@writefile{toc}{\contentsline {subsection}{\numberline {3.3}\IeC {\CYRP }\IeC {\cyre }\IeC {\cyrr }\IeC {\cyrs }\IeC {\cyre }\IeC {\cyrp }\IeC {\cyrt }\IeC {\cyrr }\IeC {\cyro }\IeC {\cyrn }}{11}{subsection.3.3}\protected@file@percent }
\@writefile{toc}{\contentsline {subsubsection}{\numberline {3.3.1}\IeC {\CYRM }\IeC {\cyre }\IeC {\cyrt }\IeC {\cyro }\IeC {\cyrd } \IeC {\cyrn }\IeC {\cyra } \IeC {\cyrn }\IeC {\cyra }\IeC {\cyrishrt }- \IeC {\cyrm }\IeC {\cyra }\IeC {\cyrl }\IeC {\cyrk }\IeC {\cyri }\IeC {\cyrt }\IeC {\cyre } \IeC {\cyrk }\IeC {\cyrv }\IeC {\cyra }\IeC {\cyrd }\IeC {\cyrr }\IeC {\cyra }\IeC {\cyrt }\IeC {\cyri }}{11}{subsubsection.3.3.1}\protected@file@percent }
\@writefile{toc}{\contentsline {subsection}{\numberline {3.4}\IeC {\CYRN }\IeC {\cyre }\IeC {\cyrv }\IeC {\cyrr }\IeC {\cyro }\IeC {\cyrn }\IeC {\cyrn }\IeC {\cyri } \IeC {\cyrm }\IeC {\cyrr }\IeC {\cyre }\IeC {\cyrzh }\IeC {\cyri }}{11}{subsection.3.4}\protected@file@percent }
\@writefile{toc}{\contentsline {paragraph}{\IeC {\CYRP }\IeC {\cyrhrdsn }\IeC {\cyrr }\IeC {\cyrv }\IeC {\cyro }\IeC {\cyrn }\IeC {\cyra }\IeC {\cyrch }\IeC {\cyra }\IeC {\cyrl }\IeC {\cyre }\IeC {\cyrn } \IeC {\cyrm }\IeC {\cyro }\IeC {\cyrd }\IeC {\cyre }\IeC {\cyrl } \IeC {\cyrv } \IeC {\cyrt }\IeC {\cyre }\IeC {\cyrk }\IeC {\cyru }\IeC {\cyrshch } \IeC {\cyrm }\IeC {\cyro }\IeC {\cyrm }\IeC {\cyre }\IeC {\cyrn }\IeC {\cyrt }}{11}{section*.25}\protected@file@percent }
\@writefile{toc}{\contentsline {paragraph}{}{11}{section*.26}\protected@file@percent }
\@writefile{toc}{\contentsline {subsection}{\numberline {3.5}\IeC {\CYRG }\IeC {\cyre }\IeC {\cyrn }\IeC {\cyre }\IeC {\cyrt }\IeC {\cyri }\IeC {\cyrch }\IeC {\cyre }\IeC {\cyrn } \IeC {\CYRA }\IeC {\cyrl }\IeC {\cyrg }\IeC {\cyro }\IeC {\cyrr }\IeC {\cyri }\IeC {\cyrt }\IeC {\cyrhrdsn }\IeC {\cyrm }}{11}{subsection.3.5}\protected@file@percent }
\@writefile{toc}{\contentsline {section}{\numberline {4}\IeC {\CYRZ }\IeC {\cyra }\IeC {\cyrk }\IeC {\cyrl }\IeC {\cyryu }\IeC {\cyrch }\IeC {\cyre }\IeC {\cyrn }\IeC {\cyri }\IeC {\cyre }}{12}{section.4}\protected@file@percent }
\@writefile{toc}{\contentsline {paragraph}{}{12}{section*.27}\protected@file@percent }
\@writefile{toc}{\contentsline {paragraph}{}{12}{section*.28}\protected@file@percent }
\@writefile{toc}{\contentsline {paragraph}{}{12}{section*.29}\protected@file@percent }
\@writefile{toc}{\contentsline {section}{\numberline {5}Appendix}{12}{section.5}\protected@file@percent }
\@writefile{toc}{\contentsline {subsection}{\numberline {5.1}\IeC {\CYRP }\IeC {\cyrhrdsn }\IeC {\cyrr }\IeC {\cyrv }\IeC {\cyro }\IeC {\cyrn }\IeC {\cyra }\IeC {\cyrch }\IeC {\cyra }\IeC {\cyrl }\IeC {\cyrn }\IeC {\cyri } \IeC {\cyri }\IeC {\cyrz }\IeC {\cyrs }\IeC {\cyrl }\IeC {\cyre }\IeC {\cyrd }\IeC {\cyrv }\IeC {\cyra }\IeC {\cyrn }\IeC {\cyri }\IeC {\cyrya } \IeC {\cyrn }\IeC {\cyra } \IeC {\cyrd }\IeC {\cyra }\IeC {\cyrn }\IeC {\cyrn }\IeC {\cyri }\IeC {\cyrt }\IeC {\cyre }}{12}{subsection.5.1}\protected@file@percent }
\newlabel{we-start-with-24000-rows}{{5.1}{12}{we start with 24000 rows}{section*.30}{}}
\@writefile{toc}{\contentsline {paragraph}{we start with 24000 rows}{12}{section*.30}\protected@file@percent }
\newlabel{we-drop-about-70-of-data-if-we-dont-remove-other-cols-or-fill}{{5.1}{13}{We drop about 70\% of data if we don't remove other cols or fill}{section*.31}{}}
\@writefile{toc}{\contentsline {paragraph}{We drop about 70\% of data if we don't remove other cols or fill}{13}{section*.31}\protected@file@percent }
\newlabel{we-should-remove-other-cols}{{5.1}{13}{We should remove other cols}{section*.32}{}}
\@writefile{toc}{\contentsline {paragraph}{We should remove other cols}{13}{section*.32}\protected@file@percent }
\newlabel{removing-percipitation-data}{{5.1}{14}{Removing percipitation data:}{section*.33}{}}
\@writefile{toc}{\contentsline {paragraph}{Removing percipitation data:}{14}{section*.33}\protected@file@percent }
\newlabel{we-are-up-to-only-about-40-data-loss-from-missing-data}{{5.1}{14}{We are up to only about 40\% data loss from missing data:}{section*.34}{}}
\@writefile{toc}{\contentsline {paragraph}{We are up to only about 40\% data loss from missing data:}{14}{section*.34}\protected@file@percent }
\newlabel{ok-we-are-removing-ww}{{5.1}{16}{OK, we are removing WW}{section*.35}{}}
\@writefile{toc}{\contentsline {paragraph}{OK, we are removing WW}{16}{section*.35}\protected@file@percent }
\newlabel{removing-the-ww-col}{{5.1}{19}{Removing the WW col}{section*.36}{}}
\@writefile{toc}{\contentsline {paragraph}{Removing the WW col}{19}{section*.36}\protected@file@percent }
\newlabel{lets-check-the-correlation}{{5.1}{19}{Lets check the correlation}{section*.37}{}}
\@writefile{toc}{\contentsline {paragraph}{Lets check the correlation}{19}{section*.37}\protected@file@percent }
\newlabel{first-we-have-to-numerize-the-string-cols}{{5.1}{19}{First we have to numerize the string cols}{section*.38}{}}
\@writefile{toc}{\contentsline {paragraph}{First we have to numerize the string cols}{19}{section*.38}\protected@file@percent }
\newlabel{array-with-classifier-cols}{{5.1}{20}{array with classifier cols:}{section*.39}{}}
\@writefile{toc}{\contentsline {paragraph}{array with classifier cols:}{20}{section*.39}\protected@file@percent }
\newlabel{remove-the-stringified-cols}{{5.1}{20}{Remove the stringified cols}{section*.40}{}}
\@writefile{toc}{\contentsline {paragraph}{Remove the stringified cols}{20}{section*.40}\protected@file@percent }
\newlabel{join-the-hotencoded-cols}{{5.1}{20}{join the hotencoded cols}{section*.41}{}}
\@writefile{toc}{\contentsline {paragraph}{join the hotencoded cols}{20}{section*.41}\protected@file@percent }
\newlabel{we-got-80-cols}{{5.1}{20}{we got 80 cols}{section*.42}{}}
\@writefile{toc}{\contentsline {paragraph}{we got 80 cols}{20}{section*.42}\protected@file@percent }
\newlabel{col-is-still-object-wise}{{5.1}{22}{1 col is still object wise}{section*.43}{}}
\@writefile{toc}{\contentsline {paragraph}{1 col is still object wise}{22}{section*.43}\protected@file@percent }
\newlabel{removing-time-col}{{5.1}{22}{removing time col}{section*.44}{}}
\@writefile{toc}{\contentsline {paragraph}{removing time col}{22}{section*.44}\protected@file@percent }
\newlabel{calc-corr-matrix}{{5.1}{23}{calc corr matrix}{section*.45}{}}
\@writefile{toc}{\contentsline {paragraph}{calc corr matrix}{23}{section*.45}\protected@file@percent }
\newlabel{todo-check-which-features-are-correlated}{{5.1}{23}{TODO: check which features are correlated}{section*.46}{}}
\@writefile{toc}{\contentsline {paragraph}{TODO: check which features are correlated}{23}{section*.46}\protected@file@percent }
\newlabel{temperature-analysis}{{5.1}{26}{Temperature analysis}{section*.47}{}}
\@writefile{toc}{\contentsline {paragraph}{Temperature analysis}{26}{section*.47}\protected@file@percent }
\newlabel{we-got-a-couple-of-cols-with-corr-above-20-1-above-70}{{5.1}{28}{We got a couple of cols with corr above 20, 1 above 70}{section*.48}{}}
\@writefile{toc}{\contentsline {paragraph}{We got a couple of cols with corr above 20, 1 above 70}{28}{section*.48}\protected@file@percent }
\@writefile{toc}{\contentsline {subsection}{\numberline {5.2}\IeC {\CYRM }\IeC {\cyrn }\IeC {\cyro }\IeC {\cyrg }\IeC {\cyro }\IeC {\cyrm }\IeC {\cyre }\IeC {\cyrr }\IeC {\cyrn }\IeC {\cyri } \IeC {\cyri }\IeC {\cyrz }\IeC {\cyrs }\IeC {\cyrl }\IeC {\cyre }\IeC {\cyrd }\IeC {\cyrv }\IeC {\cyra }\IeC {\cyrn }\IeC {\cyri }\IeC {\cyrya } \IeC {\cyrn }\IeC {\cyra } \IeC {\cyrd }\IeC {\cyra }\IeC {\cyrn }\IeC {\cyrn }\IeC {\cyri }\IeC {\cyrt }\IeC {\cyre }}{30}{subsection.5.2}\protected@file@percent }
\@writefile{toc}{\contentsline {subsubsection}{\numberline {5.2.1}Set label future speed}{31}{subsubsection.5.2.1}\protected@file@percent }
\newlabel{set-label-future-speed}{{5.2.1}{31}{Set label future speed}{subsubsection.5.2.1}{}}
\newlabel{from-116-to-73-cols-by-removing-empty}{{5.2.1}{32}{from 116 to 73 cols by removing empty}{section*.49}{}}
\@writefile{toc}{\contentsline {paragraph}{from 116 to 73 cols by removing empty}{32}{section*.49}\protected@file@percent }
\newlabel{array-with-classifier-cols}{{5.2.1}{32}{array with classifier cols:}{section*.50}{}}
\@writefile{toc}{\contentsline {paragraph}{array with classifier cols:}{32}{section*.50}\protected@file@percent }
\newlabel{remove-the-stringified-cols}{{5.2.1}{33}{Remove the stringified cols}{section*.51}{}}
\@writefile{toc}{\contentsline {paragraph}{Remove the stringified cols}{33}{section*.51}\protected@file@percent }
\newlabel{join-the-hotencoded-cols}{{5.2.1}{33}{join the hotencoded cols}{section*.52}{}}
\@writefile{toc}{\contentsline {paragraph}{join the hotencoded cols}{33}{section*.52}\protected@file@percent }
\newlabel{we-got-3441-cols}{{5.2.1}{33}{we got 3441 cols}{section*.53}{}}
\@writefile{toc}{\contentsline {paragraph}{we got 3441 cols}{33}{section*.53}\protected@file@percent }
\newlabel{corelated-colsmore-than-10}{{5.2.1}{36}{Corelated cols(more than 10\%)}{section*.54}{}}
\@writefile{toc}{\contentsline {paragraph}{Corelated cols(more than 10\%)}{36}{section*.54}\protected@file@percent }
\newlabel{remove-null-cols}{{5.2.1}{38}{Remove null cols}{section*.55}{}}
\@writefile{toc}{\contentsline {paragraph}{Remove null cols}{38}{section*.55}\protected@file@percent }
\newlabel{cutting-unneccessary-cols}{{5.2.1}{38}{Cutting unneccessary cols}{section*.56}{}}
\@writefile{toc}{\contentsline {paragraph}{Cutting unneccessary cols}{38}{section*.56}\protected@file@percent }
\newlabel{final-df}{{5.2.1}{38}{Final df}{section*.57}{}}
\@writefile{toc}{\contentsline {paragraph}{Final df}{38}{section*.57}\protected@file@percent }
\newlabel{export}{{5.2.1}{40}{Export}{section*.58}{}}
\@writefile{toc}{\contentsline {paragraph}{Export}{40}{section*.58}\protected@file@percent }
\@writefile{toc}{\contentsline {subsection}{\numberline {5.3}Perceptron}{41}{subsection.5.3}\protected@file@percent }
\newlabel{perceptron}{{5.3}{41}{Perceptron}{subsection.5.3}{}}
\newlabel{dot-product}{{5.3}{41}{dot product}{section*.59}{}}
\@writefile{toc}{\contentsline {paragraph}{dot product}{41}{section*.59}\protected@file@percent }
\newlabel{definition}{{5.3}{41}{Definition}{section*.60}{}}
\@writefile{toc}{\contentsline {paragraph}{Definition}{41}{section*.60}\protected@file@percent }
\newlabel{todo-bias-b-in-01}{{5.3}{41}{TODO: bias b in {[}0,1{]} ?}{section*.61}{}}
\@writefile{toc}{\contentsline {paragraph}{TODO: bias b in {[}0,1{]} ?}{41}{section*.61}\protected@file@percent }
\newlabel{this-is-totaly-failing}{{5.3}{41}{this is totaly failing:}{section*.62}{}}
\@writefile{toc}{\contentsline {paragraph}{this is totaly failing:}{41}{section*.62}\protected@file@percent }
\newlabel{i-had-better-result-in-range--1-1}{{5.3}{41}{I had better result in range {[}-1,-1{]}}{section*.63}{}}
\@writefile{toc}{\contentsline {paragraph}{I had better result in range {[}-1,-1{]}}{41}{section*.63}\protected@file@percent }
\newlabel{trie-in-range--10-10---very-moving-bad-result}{{5.3}{42}{trie in range {[}-10, 10{]} -\textgreater {} very moving bad result}{section*.64}{}}
\@writefile{toc}{\contentsline {paragraph}{trie in range {[}-10, 10{]} -\textgreater {} very moving bad result}{42}{section*.64}\protected@file@percent }
\newlabel{the-lower-the-bias-the-better-the-result}{{5.3}{42}{the lower the bias, the better the result}{section*.65}{}}
\@writefile{toc}{\contentsline {paragraph}{the lower the bias, the better the result}{42}{section*.65}\protected@file@percent }
\newlabel{sample}{{5.3}{43}{Sample}{section*.66}{}}
\@writefile{toc}{\contentsline {paragraph}{Sample}{43}{section*.66}\protected@file@percent }
\newlabel{test-function}{{5.3}{44}{test function}{section*.67}{}}
\@writefile{toc}{\contentsline {paragraph}{test function}{44}{section*.67}\protected@file@percent }
\newlabel{basic-differentiation}{{5.3}{44}{Basic differentiation}{section*.68}{}}
\@writefile{toc}{\contentsline {paragraph}{Basic differentiation}{44}{section*.68}\protected@file@percent }
\newlabel{gradient-descent}{{5.3}{44}{Gradient Descent}{section*.69}{}}
\@writefile{toc}{\contentsline {paragraph}{Gradient Descent}{44}{section*.69}\protected@file@percent }
\newlabel{fucntion}{{5.3}{44}{fucntion:}{section*.70}{}}
\@writefile{toc}{\contentsline {paragraph}{fucntion:}{44}{section*.70}\protected@file@percent }
\newlabel{we-have-to-have-a-gradient-descent-for}{{5.3}{61}{We have to have a gradient descent for:}{section*.71}{}}
\@writefile{toc}{\contentsline {paragraph}{We have to have a gradient descent for:}{61}{section*.71}\protected@file@percent }
\@writefile{toc}{\contentsline {subsubsection}{\numberline {5.3.1}Getting the data}{61}{subsubsection.5.3.1}\protected@file@percent }
\newlabel{getting-the-data}{{5.3.1}{61}{Getting the data}{subsubsection.5.3.1}{}}
\newlabel{import-data}{{5.3.1}{61}{Import Data:}{section*.72}{}}
\@writefile{toc}{\contentsline {paragraph}{Import Data:}{61}{section*.72}\protected@file@percent }
\@writefile{toc}{\contentsline {subsubsection}{\numberline {5.3.2}Gradient descent for vectors}{62}{subsubsection.5.3.2}\protected@file@percent }
\newlabel{gradient-descent-for-vectors}{{5.3.2}{62}{Gradient descent for vectors}{subsubsection.5.3.2}{}}
\bibcite{data01}{1}
\bibcite{encode_tut}{2}
\bibcite{publication}{3}
\bibcite{genetic_1}{4}
\bibcite{genetic_2}{5}
\@writefile{toc}{\contentsline {subsubsection}{\numberline {5.3.3}initial weights}{63}{subsubsection.5.3.3}\protected@file@percent }
\newlabel{initial-weights}{{5.3.3}{63}{initial weights}{subsubsection.5.3.3}{}}
\@writefile{toc}{\contentsline {section}{\numberline {6}\IeC {\CYRB }\IeC {\cyri }\IeC {\cyrb }\IeC {\cyrl }\IeC {\cyri }\IeC {\cyro }\IeC {\cyrg }\IeC {\cyrr }\IeC {\cyra }\IeC {\cyrf }\IeC {\cyri }\IeC {\cyrya }}{63}{section.6}\protected@file@percent }
