\relax 
\providecommand\hyper@newdestlabel[2]{}
\providecommand\HyperFirstAtBeginDocument{\AtBeginDocument}
\HyperFirstAtBeginDocument{\ifx\hyper@anchor\@undefined
\global\let\oldcontentsline\contentsline
\gdef\contentsline#1#2#3#4{\oldcontentsline{#1}{#2}{#3}}
\global\let\oldnewlabel\newlabel
\gdef\newlabel#1#2{\newlabelxx{#1}#2}
\gdef\newlabelxx#1#2#3#4#5#6{\oldnewlabel{#1}{{#2}{#3}}}
\AtEndDocument{\ifx\hyper@anchor\@undefined
\let\contentsline\oldcontentsline
\let\newlabel\oldnewlabel
\fi}
\fi}
\global\let\hyper@last\relax 
\gdef\HyperFirstAtBeginDocument#1{#1}
\providecommand\HyField@AuxAddToFields[1]{}
\providecommand\HyField@AuxAddToCoFields[2]{}
\providecommand \oddpage@label [2]{}
\newlabel{we-start-with-24000-rows}{{}{1}{we start with 24000 rows}{section*.1}{}}
\@writefile{toc}{\contentsline {paragraph}{we start with 24000 rows}{1}{section*.1}\protected@file@percent }
\newlabel{we-drop-about-70-of-data-if-we-dont-remove-other-cols-or-fill}{{}{2}{We drop about 70\% of data if we don't remove other cols or fill}{section*.2}{}}
\@writefile{toc}{\contentsline {paragraph}{We drop about 70\% of data if we don't remove other cols or fill}{2}{section*.2}\protected@file@percent }
\newlabel{we-should-remove-other-cols}{{}{2}{We should remove other cols}{section*.3}{}}
\@writefile{toc}{\contentsline {paragraph}{We should remove other cols}{2}{section*.3}\protected@file@percent }
\newlabel{removing-percipitation-data}{{}{3}{Removing percipitation data:}{section*.4}{}}
\@writefile{toc}{\contentsline {paragraph}{Removing percipitation data:}{3}{section*.4}\protected@file@percent }
\newlabel{we-are-up-to-only-about-40-data-loss-from-missing-data}{{}{3}{We are up to only about 40\% data loss from missing data:}{section*.5}{}}
\@writefile{toc}{\contentsline {paragraph}{We are up to only about 40\% data loss from missing data:}{3}{section*.5}\protected@file@percent }
\newlabel{ok-we-are-removing-ww}{{}{5}{OK, we are removing WW}{section*.6}{}}
\@writefile{toc}{\contentsline {paragraph}{OK, we are removing WW}{5}{section*.6}\protected@file@percent }
\newlabel{removing-the-ww-col}{{}{7}{Removing the WW col}{section*.7}{}}
\@writefile{toc}{\contentsline {paragraph}{Removing the WW col}{7}{section*.7}\protected@file@percent }
\newlabel{lets-check-the-correlation}{{}{8}{Lets check the correlation}{section*.8}{}}
\@writefile{toc}{\contentsline {paragraph}{Lets check the correlation}{8}{section*.8}\protected@file@percent }
\newlabel{first-we-have-to-numerize-the-string-cols}{{}{8}{First we have to numerize the string cols}{section*.9}{}}
\@writefile{toc}{\contentsline {paragraph}{First we have to numerize the string cols}{8}{section*.9}\protected@file@percent }
\newlabel{array-with-classifier-cols}{{}{9}{array with classifier cols:}{section*.10}{}}
\@writefile{toc}{\contentsline {paragraph}{array with classifier cols:}{9}{section*.10}\protected@file@percent }
\newlabel{remove-the-stringified-cols}{{}{9}{Remove the stringified cols}{section*.11}{}}
\@writefile{toc}{\contentsline {paragraph}{Remove the stringified cols}{9}{section*.11}\protected@file@percent }
\newlabel{join-the-hotencoded-cols}{{}{9}{join the hotencoded cols}{section*.12}{}}
\@writefile{toc}{\contentsline {paragraph}{join the hotencoded cols}{9}{section*.12}\protected@file@percent }
\newlabel{we-got-80-cols}{{}{9}{we got 80 cols}{section*.13}{}}
\@writefile{toc}{\contentsline {paragraph}{we got 80 cols}{9}{section*.13}\protected@file@percent }
\newlabel{col-is-still-object-wise}{{}{11}{1 col is still object wise}{section*.14}{}}
\@writefile{toc}{\contentsline {paragraph}{1 col is still object wise}{11}{section*.14}\protected@file@percent }
\newlabel{removing-time-col}{{}{11}{removing time col}{section*.15}{}}
\@writefile{toc}{\contentsline {paragraph}{removing time col}{11}{section*.15}\protected@file@percent }
\newlabel{calc-corr-matrix}{{}{11}{calc corr matrix}{section*.16}{}}
\@writefile{toc}{\contentsline {paragraph}{calc corr matrix}{11}{section*.16}\protected@file@percent }
\newlabel{todo-check-which-features-are-correlated}{{}{11}{TODO: check which features are correlated}{section*.17}{}}
\@writefile{toc}{\contentsline {paragraph}{TODO: check which features are correlated}{11}{section*.17}\protected@file@percent }
\newlabel{temperature-analysis}{{}{15}{Temperature analysis}{section*.18}{}}
\@writefile{toc}{\contentsline {paragraph}{Temperature analysis}{15}{section*.18}\protected@file@percent }
\newlabel{we-got-a-couple-of-cols-with-corr-above-20-1-above-70}{{}{17}{We got a couple of cols with corr above 20, 1 above 70}{section*.19}{}}
\@writefile{toc}{\contentsline {paragraph}{We got a couple of cols with corr above 20, 1 above 70}{17}{section*.19}\protected@file@percent }
