\relax 
\providecommand\hyper@newdestlabel[2]{}
\providecommand\HyperFirstAtBeginDocument{\AtBeginDocument}
\HyperFirstAtBeginDocument{\ifx\hyper@anchor\@undefined
\global\let\oldcontentsline\contentsline
\gdef\contentsline#1#2#3#4{\oldcontentsline{#1}{#2}{#3}}
\global\let\oldnewlabel\newlabel
\gdef\newlabel#1#2{\newlabelxx{#1}#2}
\gdef\newlabelxx#1#2#3#4#5#6{\oldnewlabel{#1}{{#2}{#3}}}
\AtEndDocument{\ifx\hyper@anchor\@undefined
\let\contentsline\oldcontentsline
\let\newlabel\oldnewlabel
\fi}
\fi}
\global\let\hyper@last\relax 
\gdef\HyperFirstAtBeginDocument#1{#1}
\providecommand\HyField@AuxAddToFields[1]{}
\providecommand\HyField@AuxAddToCoFields[2]{}
\catcode `"\active 
\providecommand \oddpage@label [2]{}
\babel@aux{bulgarian}{}
\@writefile{toc}{\contentsline {section}{\numberline {1}\IeC {\CYRU }\IeC {\cyrv }\IeC {\cyro }\IeC {\cyrd }}{3}{section.1}\protected@file@percent }
\@writefile{toc}{\contentsline {paragraph}{}{3}{section*.2}\protected@file@percent }
\@writefile{toc}{\contentsline {paragraph}{}{3}{section*.3}\protected@file@percent }
\@writefile{toc}{\contentsline {paragraph}{}{3}{section*.4}\protected@file@percent }
\@writefile{toc}{\contentsline {paragraph}{}{3}{section*.5}\protected@file@percent }
\@writefile{toc}{\contentsline {section}{\numberline {2}\IeC {\CYRD }\IeC {\cyra }\IeC {\cyrn }\IeC {\cyrn }\IeC {\cyri }}{3}{section.2}\protected@file@percent }
\@writefile{toc}{\contentsline {paragraph}{}{3}{section*.6}\protected@file@percent }
\@writefile{toc}{\contentsline {paragraph}{}{4}{section*.7}\protected@file@percent }
\@writefile{toc}{\contentsline {section}{\numberline {3}\IeC {\CYRM }\IeC {\cyro }\IeC {\cyrd }\IeC {\cyre }\IeC {\cyrl }\IeC {\cyri } \IeC {\cyri } \IeC {\CYRM }\IeC {\cyre }\IeC {\cyrt }\IeC {\cyro }\IeC {\cyrd }\IeC {\cyri }}{4}{section.3}\protected@file@percent }
\@writefile{toc}{\contentsline {subsection}{\numberline {3.1}\IeC {\CYRN }\IeC {\cyre }\IeC {\cyrv }\IeC {\cyrr }\IeC {\cyro }\IeC {\cyrn }\IeC {\cyrn }\IeC {\cyri } \IeC {\cyrm }\IeC {\cyrr }\IeC {\cyre }\IeC {\cyrzh }\IeC {\cyri }}{4}{subsection.3.1}\protected@file@percent }
\@writefile{toc}{\contentsline {section}{\numberline {4}Appendix}{4}{section.4}\protected@file@percent }
\newlabel{we-start-with-24000-rows}{{4}{5}{we start with 24000 rows}{section*.8}{}}
\@writefile{toc}{\contentsline {paragraph}{we start with 24000 rows}{5}{section*.8}\protected@file@percent }
\newlabel{we-drop-about-70-of-data-if-we-dont-remove-other-cols-or-fill}{{4}{6}{We drop about 70\% of data if we don't remove other cols or fill}{section*.9}{}}
\@writefile{toc}{\contentsline {paragraph}{We drop about 70\% of data if we don't remove other cols or fill}{6}{section*.9}\protected@file@percent }
\newlabel{we-should-remove-other-cols}{{4}{6}{We should remove other cols}{section*.10}{}}
\@writefile{toc}{\contentsline {paragraph}{We should remove other cols}{6}{section*.10}\protected@file@percent }
\newlabel{removing-percipitation-data}{{4}{6}{Removing percipitation data:}{section*.11}{}}
\@writefile{toc}{\contentsline {paragraph}{Removing percipitation data:}{6}{section*.11}\protected@file@percent }
\newlabel{we-are-up-to-only-about-40-data-loss-from-missing-data}{{4}{6}{We are up to only about 40\% data loss from missing data:}{section*.12}{}}
\@writefile{toc}{\contentsline {paragraph}{We are up to only about 40\% data loss from missing data:}{6}{section*.12}\protected@file@percent }
\newlabel{ok-we-are-removing-ww}{{4}{8}{OK, we are removing WW}{section*.13}{}}
\@writefile{toc}{\contentsline {paragraph}{OK, we are removing WW}{8}{section*.13}\protected@file@percent }
\newlabel{removing-the-ww-col}{{4}{11}{Removing the WW col}{section*.14}{}}
\@writefile{toc}{\contentsline {paragraph}{Removing the WW col}{11}{section*.14}\protected@file@percent }
\newlabel{lets-check-the-correlation}{{4}{11}{Lets check the correlation}{section*.15}{}}
\@writefile{toc}{\contentsline {paragraph}{Lets check the correlation}{11}{section*.15}\protected@file@percent }
\newlabel{first-we-have-to-numerize-the-string-cols}{{4}{12}{First we have to numerize the string cols}{section*.16}{}}
\@writefile{toc}{\contentsline {paragraph}{First we have to numerize the string cols}{12}{section*.16}\protected@file@percent }
\newlabel{array-with-classifier-cols}{{4}{13}{array with classifier cols:}{section*.17}{}}
\@writefile{toc}{\contentsline {paragraph}{array with classifier cols:}{13}{section*.17}\protected@file@percent }
\newlabel{remove-the-stringified-cols}{{4}{13}{Remove the stringified cols}{section*.18}{}}
\@writefile{toc}{\contentsline {paragraph}{Remove the stringified cols}{13}{section*.18}\protected@file@percent }
\newlabel{join-the-hotencoded-cols}{{4}{13}{join the hotencoded cols}{section*.19}{}}
\@writefile{toc}{\contentsline {paragraph}{join the hotencoded cols}{13}{section*.19}\protected@file@percent }
\newlabel{we-got-80-cols}{{4}{13}{we got 80 cols}{section*.20}{}}
\@writefile{toc}{\contentsline {paragraph}{we got 80 cols}{13}{section*.20}\protected@file@percent }
\newlabel{col-is-still-object-wise}{{4}{15}{1 col is still object wise}{section*.21}{}}
\@writefile{toc}{\contentsline {paragraph}{1 col is still object wise}{15}{section*.21}\protected@file@percent }
\newlabel{removing-time-col}{{4}{15}{removing time col}{section*.22}{}}
\@writefile{toc}{\contentsline {paragraph}{removing time col}{15}{section*.22}\protected@file@percent }
\newlabel{calc-corr-matrix}{{4}{15}{calc corr matrix}{section*.23}{}}
\@writefile{toc}{\contentsline {paragraph}{calc corr matrix}{15}{section*.23}\protected@file@percent }
\newlabel{todo-check-which-features-are-correlated}{{4}{15}{TODO: check which features are correlated}{section*.24}{}}
\@writefile{toc}{\contentsline {paragraph}{TODO: check which features are correlated}{15}{section*.24}\protected@file@percent }
\newlabel{temperature-analysis}{{4}{18}{Temperature analysis}{section*.25}{}}
\@writefile{toc}{\contentsline {paragraph}{Temperature analysis}{18}{section*.25}\protected@file@percent }
\newlabel{we-got-a-couple-of-cols-with-corr-above-20-1-above-70}{{4}{21}{We got a couple of cols with corr above 20, 1 above 70}{section*.26}{}}
\@writefile{toc}{\contentsline {paragraph}{We got a couple of cols with corr above 20, 1 above 70}{21}{section*.26}\protected@file@percent }
\bibcite{lamport94}{1}
