\relax 
\catcode `"\active 
\babel@aux{bulgarian}{}
\@writefile{toc}{\contentsline {section}{\numberline {1}\IeC {\CYRD }\IeC {\cyre }\IeC {\cyrf }\IeC {\cyri }\IeC {\cyrn }\IeC {\cyri }\IeC {\cyrc }\IeC {\cyri }\IeC {\cyri }}{1}\protected@file@percent }
\@writefile{toc}{\contentsline {subsection}{\numberline {1.1}\IeC {\CYRH }\IeC {\cyri }\IeC {\cyrp }\IeC {\cyro }\IeC {\cyrt }\IeC {\cyre }\IeC {\cyrz }\IeC {\cyri }}{1}\protected@file@percent }
\@writefile{toc}{\contentsline {subsubsection}{\numberline {1.1.1}\IeC {\CYRF }\IeC {\cyru }\IeC {\cyrn }\IeC {\cyrk }\IeC {\cyrc }\IeC {\cyri }\IeC {\cyrya } \IeC {\cyrn }\IeC {\cyra } \IeC {\cyrp }\IeC {\cyrr }\IeC {\cyra }\IeC {\cyrv }\IeC {\cyrd }\IeC {\cyro }\IeC {\cyrp }\IeC {\cyro }\IeC {\cyrd }\IeC {\cyro }\IeC {\cyrb }\IeC {\cyrn }\IeC {\cyro }\IeC {\cyrs }\IeC {\cyrt }}{1}\protected@file@percent }
\@writefile{toc}{\contentsline {subsubsection}{\numberline {1.1.2}\IeC {\cyrp }\IeC {\cyrr }\IeC {\cyro }\IeC {\cyrs }\IeC {\cyrt }\IeC {\cyra } \IeC {\cyrh }\IeC {\cyri }\IeC {\cyrp }\IeC {\cyro }\IeC {\cyrt }\IeC {\cyre }\IeC {\cyrz }\IeC {\cyra }}{1}\protected@file@percent }
\@writefile{toc}{\contentsline {subsubsection}{\numberline {1.1.3}\IeC {\cyrs }\IeC {\cyrl }\IeC {\cyro }\IeC {\cyrzh }\IeC {\cyrn }\IeC {\cyra } \IeC {\cyrh }\IeC {\cyri }\IeC {\cyrp }\IeC {\cyro }\IeC {\cyrt }\IeC {\cyre }\IeC {\cyrz }\IeC {\cyra }}{1}\protected@file@percent }
\@writefile{toc}{\contentsline {subsection}{\numberline {1.2}\IeC {\CYRG }\IeC {\cyrr }\IeC {\cyre }\IeC {\cyrsh }\IeC {\cyrk }\IeC {\cyri } \IeC {\cyro }\IeC {\cyrt } 1\IeC {\cyrv }\IeC {\cyri } \IeC {\cyri } 2\IeC {\cyrr }\IeC {\cyri } \IeC {\cyrr }\IeC {\cyro }\IeC {\cyrd }}{1}\protected@file@percent }
\@writefile{toc}{\contentsline {subsection}{\numberline {1.3}\IeC {\CYRK }\IeC {\cyrr }\IeC {\cyri }\IeC {\cyrt }\IeC {\cyri }\IeC {\cyrch }\IeC {\cyrn }\IeC {\cyra } \IeC {\cyro }\IeC {\cyrb }\IeC {\cyrl }\IeC {\cyra }\IeC {\cyrs }\IeC {\cyrt }}{2}\protected@file@percent }
\@writefile{toc}{\contentsline {subsubsection}{\numberline {1.3.1}\IeC {\cyrv }\IeC {\cyre }\IeC {\cyrr }\IeC {\cyro }\IeC {\cyrya }\IeC {\cyrt }\IeC {\cyrn }\IeC {\cyro }\IeC {\cyrs }\IeC {\cyrt } \IeC {\cyrz }\IeC {\cyra } \IeC {\cyrg }\IeC {\cyrr }\IeC {\cyre }\IeC {\cyrsh }\IeC {\cyrk }\IeC {\cyra } \IeC {\cyro }\IeC {\cyrt } 1\IeC {\cyrv }\IeC {\cyri } \IeC {\cyrr }\IeC {\cyro }\IeC {\cyrd }/\IeC {\CYRN }\IeC {\cyri }\IeC {\cyrv }\IeC {\cyro } \IeC {\cyrn }\IeC {\cyra } \IeC {\cyrd }\IeC {\cyro }\IeC {\cyrv }\IeC {\cyre }\IeC {\cyrr }\IeC {\cyri }\IeC {\cyre }}{2}\protected@file@percent }
\@writefile{toc}{\contentsline {subsubsection}{\numberline {1.3.2}\IeC {\cyrb }\IeC {\cyre }\IeC {\cyrt }\IeC {\cyra }\IeC {\cyrt }\IeC {\cyra }}{2}\protected@file@percent }
\@writefile{toc}{\contentsline {subsubsection}{\numberline {1.3.3}\IeC {\CYRM }\IeC {\cyro }\IeC {\cyrshch }\IeC {\cyrn }\IeC {\cyro }\IeC {\cyrs }\IeC {\cyrt }}{2}\protected@file@percent }
\@writefile{toc}{\contentsline {subsubsection}{\numberline {1.3.4}\IeC {\CYRO }\IeC {\cyrp }\IeC {\cyrt }\IeC {\cyri }\IeC {\cyrm }\IeC {\cyra }\IeC {\cyrl }\IeC {\cyrn }\IeC {\cyra } \IeC {\cyrk }\IeC {\cyrr }\IeC {\cyri }\IeC {\cyrt }\IeC {\cyri }\IeC {\cyrch }\IeC {\cyrn }\IeC {\cyra } \IeC {\cyro }\IeC {\cyrb }\IeC {\cyrl }\IeC {\cyra }\IeC {\cyrs }}{2}\protected@file@percent }
\@writefile{toc}{\contentsline {section}{\numberline {2}\IeC {\CYRL }\IeC {\cyre }\IeC {\cyrm }\IeC {\cyra } \IeC {\cyrn }\IeC {\cyra } \IeC {\CYRN }\IeC {\cyre }\IeC {\cyrishrt }\IeC {\cyrm }\IeC {\cyrhrdsn }\IeC {\cyrn }-\IeC {\CYRP }\IeC {\cyri }\IeC {\cyrr }\IeC {\cyrs }\IeC {\cyrhrdsn }\IeC {\cyrn }}{2}\protected@file@percent }
\@writefile{toc}{\contentsline {subsection}{\numberline {2.1}\IeC {\CYRD }\IeC {\cyre }\IeC {\cyrf }\IeC {\cyri }\IeC {\cyrn }\IeC {\cyri }\IeC {\cyrc }\IeC {\cyri }\IeC {\cyrishrt }\IeC {\cyrk }\IeC {\cyri }}{2}\protected@file@percent }
\@writefile{toc}{\contentsline {section}{\numberline {3}\IeC {\CYRL }\IeC {\cyre }\IeC {\cyrm }\IeC {\cyra } \IeC {\cyrn }\IeC {\cyra } \IeC {\CYRN }\IeC {\cyre }\IeC {\cyrishrt }\IeC {\cyrm }\IeC {\cyrhrdsn }\IeC {\cyrn }-\IeC {\CYRP }\IeC {\cyri }\IeC {\cyrr }\IeC {\cyrs }\IeC {\cyrhrdsn }\IeC {\cyrn }}{3}\protected@file@percent }
\@writefile{toc}{\contentsline {subsection}{\numberline {3.1}\IeC {\CYRL }\IeC {\cyre }\IeC {\cyrm }\IeC {\cyra }}{3}\protected@file@percent }
\@writefile{toc}{\contentsline {subsection}{\numberline {3.2}\IeC {\CYRD }\IeC {\cyro }\IeC {\cyrk }\IeC {\cyra }\IeC {\cyrz }\IeC {\cyra }\IeC {\cyrt }\IeC {\cyre }\IeC {\cyrl }\IeC {\cyrs }\IeC {\cyrt }\IeC {\cyrv }\IeC {\cyro }:}{3}\protected@file@percent }
\@writefile{toc}{\contentsline {subsection}{\numberline {3.3}\IeC {\CYRS }\IeC {\cyrl }\IeC {\cyre }\IeC {\cyrd }\IeC {\cyrs }\IeC {\cyrt }\IeC {\cyrv }\IeC {\cyri }\IeC {\cyrya }}{4}\protected@file@percent }
